<?xml version="1.0" encoding="UTF-8"?>
<session version="1.0">
<refactoring comment="Rename Java project &apos;bank_app_microservices&apos; to &apos;UserService&apos;&#x0D;&#x0A;- Original element: &apos;bank_app_microservices&apos;&#x0D;&#x0A;- Renamed element: &apos;bank_app_microservices&apos;&#x0D;&#x0A;- Update references to refactored element" description="Rename Java project &apos;bank_app_microservices&apos;" flags="7" id="org.eclipse.jdt.ui.rename.java.project" input="=bank_app_microservices" name="UserService" references="true" stamp="1708930158783" version="1.0"/>
</session>